…
``` r
levels(pbp$PassType)
```

    ## [1] "BACK TO"      "DEEP LEFT"    "DEEP MIDDLE"  "DEEP RIGHT"   "SHORT LEFT"  
    ## [6] "SHORT MIDDLE" "SHORT RIGHT"

``` r
#inspecting field goals to prepare to add "score" variables to the dataset
pbp %>%
  filter(PlayType == "FIELD GOAL")
```

    ## # A tibble: 1,162 × 45
    ##      GameId GameDate   Quarter Minute Second OffenseTeam DefenseTeam  Down  ToGo
    ##       <dbl> <date>       <dbl>  <dbl>  <dbl> <chr>       <chr>       <dbl> <dbl>
    ##  1   2.02e9 2024-12-29       4      2     24 NYG         IND             4     5
    ##  2   2.02e9 2024-12-29       1     10     50 JAX         TEN             4     6
    ##  3   2.02e9 2024-12-29       2      0      3 NO          LV              3     9
    ##  4   2.02e9 2024-12-29       4      0      2 ATL         WAS             1    10
    ##  5   2.02e9 2024-12-29       1      6      7 MIN         GB              4     3
    ##  6   2.02e9 2024-12-29       2      9     29 IND         NYG             4     9
    ##  7   2.02e9 2024-12-29       1      3     48 IND         NYG             4     5
    ##  8   2.02e9 2024-12-22       2      0      3 CIN         CLE             4    14
    ##  9   2.02e9 2024-12-25       1      2     51 BAL         HOU             4     9
    ## 10   2.02e9 2024-12-22       3      6     38 DAL         TB              4     6
    ## # ℹ 1,152 more rows
    ## # ℹ 36 more variables: YardLine <dbl>, ...11 <lgl>, SeriesFirstDown <dbl>,
    ## #   ...13 <lgl>, NextScore <dbl>, Description <chr>, TeamWin <dbl>,
    ## #   ...17 <lgl>, ...18 <lgl>, SeasonYear <dbl>, Yards <dbl>, Formation <chr>,
    ## #   PlayType <fct>, IsRush <dbl>, IsPass <dbl>, IsIncomplete <dbl>,
    ## #   IsTouchdown <dbl>, PassType <fct>, IsSack <dbl>, IsChallenge <dbl>,
    ## #   IsChallengeReversed <dbl>, Challenger <lgl>, IsMeasurement <dbl>, …
…
#inspecting extra point
pbp %>%
  filter(PlayType == "EXTRA POINT") %>%
  select(GameId, Quarter, Minute, Second, OffenseTeam, DefenseTeam, Description)
```

    ## # A tibble: 1,304 × 7
    ##        GameId Quarter Minute Second OffenseTeam DefenseTeam Description         
    ##         <dbl>   <dbl>  <dbl>  <dbl> <chr>       <chr>       <chr>               
    ##  1 2024122907       3      9     44 MIN         GB          16-W.REICHARD EXTRA…
    ##  2 2024122909       4     13     30 TB          CAR         4-C.MCLAUGHLIN EXTR…
    ##  3 2024122909       3      5     48 TB          CAR         4-C.MCLAUGHLIN EXTR…
    ##  4 2024122907       2     11     52 MIN         GB          16-W.REICHARD EXTRA…
    ##  5 2024122906       2      8     59 JAX         TEN         39-C.LITTLE EXTRA P…
    ##  6 2024122903       4      2     57 NYG         IND         9-G.GANO EXTRA POIN…
    ##  7 2024122903       4      6     38 IND         NYG         7-M.GAY EXTRA POINT…
    ##  8 2024122903       4      8     39 NYG         IND         9-G.GANO EXTRA POIN…
    ##  9 2024122905       3      0     12 BUF         NYJ         2-T.BASS EXTRA POIN…
    ## 10 2024122905       3      1     15 BUF         NYJ         2-T.BASS EXTRA POIN…
    ## # ℹ 1,294 more rows
…
  mutate(
    ScoreDiff = OffenseScore - DefenseScore
  )
```

``` r
#investigating to make sure that was right
#Example, Kansas City vs Ravens:
#KC (1), BAL (2)
#0 - 7, 7-7, 10-7, 13-7, 13-10, 20- 10, 20 - 17, 27 -17, 27- 20
pbp %>%
  filter(GameId == 2024090500) 
```

    ## # A tibble: 193 × 57
    ##      GameId GameDate   Quarter Minute Second OffenseTeam DefenseTeam  Down  ToGo
    ##       <dbl> <date>       <dbl>  <dbl>  <dbl> <chr>       <chr>       <dbl> <dbl>
    ##  1   2.02e9 2024-09-05       1     15      0 BAL         KC              0     0
    ##  2   2.02e9 2024-09-05       1     15      0 BAL         KC              1    10
    ##  3   2.02e9 2024-09-05       1     14     19 BAL         KC              2     8
    ##  4   2.02e9 2024-09-05       1     13     55 BAL         KC              2    13
    ##  5   2.02e9 2024-09-05       1     13     20 BAL         KC              3    11
    ##  6   2.02e9 2024-09-05       1     12     43 BAL         KC              1    10
    ##  7   2.02e9 2024-09-05       1     12      0 BAL         KC              2     9
    ##  8   2.02e9 2024-09-05       1     11     55 BAL         KC              3     9
    ##  9   2.02e9 2024-09-05       1     11     49 BAL         KC              3     9
    ## 10   2.02e9 2024-09-05       1     11      5 BAL         KC              1    10
    ## # ℹ 183 more rows
    ## # ℹ 48 more variables: YardLine <dbl>, ...11 <lgl>, SeriesFirstDown <dbl>,
    ## #   ...13 <lgl>, NextScore <dbl>, Description <chr>, TeamWin <dbl>,
    ## #   ...17 <lgl>, ...18 <lgl>, SeasonYear <dbl>, Yards <dbl>, Formation <chr>,
    ## #   PlayType <fct>, IsRush <dbl>, IsPass <dbl>, IsIncomplete <dbl>,
    ## #   IsTouchdown <dbl>, PassType <fct>, IsSack <dbl>, IsChallenge <dbl>,
    ## #   IsChallengeReversed <dbl>, Challenger <lgl>, IsMeasurement <dbl>, …

``` r
#Just discovered something horrible about our data... if a play is a touchdown which is later reversed due to ref decision, then the isTouchdown variable is still marked as a 1, not a 0. This is detrimental to our scoring system, I will have to try to find if there is some consistent way to get the scores corrected or if we are just doomed forever.

#looking for isTouchdown and description contains reversed
pbp %>%
  filter(
    IsTouchdown == 1,
    str_detect(tolower(Description), "reversed")
  )
```

    ## # A tibble: 71 × 57
    ##      GameId GameDate   Quarter Minute Second OffenseTeam DefenseTeam  Down  ToGo
    ##       <dbl> <date>       <dbl>  <dbl>  <dbl> <chr>       <chr>       <dbl> <dbl>
    ##  1   2.02e9 2024-09-05       4      0      5 BAL         KC              3    10
    ##  2   2.02e9 2024-09-08       2      5     24 CIN         NE              2    11
    ##  3   2.02e9 2024-09-08       3      5      0 CAR         NO              4     3
    ##  4   2.02e9 2024-09-08       4      1     38 WAS         TB              1     1
    ##  5   2.02e9 2024-09-08       2      2      0 DET         LA              2     1
    ##  6   2.02e9 2024-09-16       4      7      9 PHI         ATL             3     3
    ##  7   2.02e9 2024-09-19       2      8     33 NYJ         NE              3     1
    ##  8   2.02e9 2024-09-29       3      7      6 TB          PHI             2     2
    ##  9   2.02e9 2024-09-29       4      5      2 PHI         TB              2    15
    ## 10   2.02e9 2024-09-30       2     10     51 SEA         DET             2     8
    ## # ℹ 61 more rows
    ## # ℹ 48 more variables: YardLine <dbl>, ...11 <lgl>, SeriesFirstDown <dbl>,
    ## #   ...13 <lgl>, NextScore <dbl>, Description <chr>, TeamWin <dbl>,
    ## #   ...17 <lgl>, ...18 <lgl>, SeasonYear <dbl>, Yards <dbl>, Formation <chr>,
    ## #   PlayType <fct>, IsRush <dbl>, IsPass <dbl>, IsIncomplete <dbl>,
    ## #   IsTouchdown <dbl>, PassType <fct>, IsSack <dbl>, IsChallenge <dbl>,
    ## #   IsChallengeReversed <dbl>, Challenger <lgl>, IsMeasurement <dbl>, …
…
